1.8170865054329642e-05,0.0014836564859063894,0.010210455618772301,0.015423536429226618,-0.06509270592777268,-0.32665329315434705,-0.622862023241791,-0.5522361624721235,-1.4737404981751887e-15,0.5522361624721227,0.6228620232417916,0.3266532931543466,0.06509270592777318,-0.015423536429226555,-0.010210455618772395,-0.0014836564859063925,-1.817086505432897e-05
5.875532573579873e-16,1.0092783890914943,-4.148001261647732e-16,-0.25232239202818607,-2.523329877239629e-16,-0.002705280211240713,8.524053596013791e-16,0.0026040361686038896,-1.7872285072782594e-15,0.00030939080381947343,1.8165002718694735e-15,7.9515766889096e-06,-1.1149172812188399e-15,-2.9165707161822826e-06,3.388843296692895e-16,-5.917079676022874e-07,3.27800903554467e-16
5.084946513527265e-16,1.0081690122539042,-5.275865496886455e-16,-0.24543215393713336,-2.326659150101225e-16,-0.008523853693119653,8.419468849829527e-16,0.0026006148268710497,-1.8090387586371104e-15,0.0004552288425239294,1.8279919678648726e-15,3.0016998124762243e-05,-1.1154966517547618e-15,-2.1477396030867366e-06,3.226196030161124e-16,-8.951050365953618e-07,3.61832146276303e-16
4.722276276332925e-16,1.0060425338129118,-4.238117572534969e-16,-0.23522390929492432,-2.267051390195021e-16,-0.0171685035182769,7.278734110257494e-16,0.002243957178305096,-1.798912903269159e-15,0.0006828946442322348,1.816488413408212e-15,8.234747057209806e-05,-1.0747797779802476e-15,2.7084258724873116e-06,2.963598875853346e-16,-1.1372595815685335e-06,3.8713471447668346e-16
5.000171854569969e-16,1.0031353380589876,-4.528594237275194e-16,-0.22442131642987154,-2.431423162867842e-16,-0.026368751516368673,7.060326664807973e-16,0.0013845312322006017,-1.8084886107378687e-15,0.000914057624454725,1.851119355456704e-15,0.00016678652852549197,-1.0831078059176519e-15,1.590228005139547e-05,2.772135548455984e-16,-3.92524555557525e-07,3.877699891871242e-16
5.381401177657728e-16,1.0001808987168572,-4.3317833195665743e-16,-0.21545693881991843,-2.467019722476204e-16,-0.034062751038348764,6.833484888786167e-16,0.0002706201947709237,-1.86944830140234e-15,0.0010749863939965563,1.91106726526568e-15,0.00026147756962711623,-1.0889218400676054e-15,3.647765301798279e-05,2.774270071483065e-16,2.0262828319602318e-06,3.8173403240499004e-16
5.340800817442371e-16,0.9981219550867596,-4.6832868056410625e-16,-0.20998235130465084,-2.3457627209120147e-16,-0.03879531920971715,6.623702356322063e-16,-0.0005990511820398774,-1.8785013895425938e-15,0.0011496721437474764,1.928524614308591e-15,0.00033057970226234724,-1.0608105106141297e-15,5.483354774472322e-05,2.6501289227334746e-16,4.877956230692895e-06,4.139111200052864e-16
7.775639876986113e-05,0.0039650927679649,0.019600549514869475,0.023100812209831078,-0.08081893326169438,-0.353226209366328,-0.6123933337644356,-0.5134823388389591,-1.34533485793242e-15,0.5134823388389582,0.612393333764436,0.3532262093663276,0.08081893326169497,-0.023100812209830974,-0.019600549514869607,-0.003965092767964909,-7.775639876985849e-05
